{
  "stats": {
    "suites": 2,
    "tests": 1,
    "passes": 0,
    "pending": 0,
    "failures": 1,
    "start": "2018-03-11T10:23:08.911Z",
    "end": "2018-03-11T10:23:28.930Z",
    "duration": 20019,
    "testsRegistered": 1,
    "passPercent": 0,
    "pendingPercent": 0,
    "other": 0,
    "hasOther": false,
    "skipped": 0,
    "hasSkipped": false,
    "passPercentClass": "danger",
    "pendingPercentClass": "danger"
  },
  "suites": {
    "uuid": "bdb4db18-4e0b-4659-9ff9-b6488d95fb40",
    "title": "",
    "fullFile": "",
    "file": "",
    "beforeHooks": [],
    "afterHooks": [],
    "tests": [],
    "suites": [
      {
        "uuid": "e791c9e2-df3e-4b41-a46d-eff84c79a43a",
        "title": "StudentFunctionality",
        "fullFile": "/home/ubuntu/hetc-rpl/test/student.js",
        "file": "/test/student.js",
        "beforeHooks": [
          {
            "title": "\"before all\" hook",
            "fullTitle": "StudentFunctionality \"before all\" hook",
            "timedOut": false,
            "duration": 1,
            "pass": false,
            "fail": false,
            "pending": false,
            "code": "done();",
            "err": {},
            "isRoot": false,
            "uuid": "393fabbb-18b8-4c22-a64c-e9bde9141e4e",
            "isHook": true,
            "skipped": false
          }
        ],
        "afterHooks": [],
        "tests": [],
        "suites": [
          {
            "uuid": "16248613-b112-427b-826d-255a36f81565",
            "title": "/POST /api/authTest/getMyTrainerList",
            "fullFile": "/home/ubuntu/hetc-rpl/test/student.js",
            "file": "/test/student.js",
            "beforeHooks": [],
            "afterHooks": [],
            "tests": [
              {
                "title": "it should return my trainer list",
                "fullTitle": "StudentFunctionality /POST /api/authTest/getMyTrainerList it should return my trainer list",
                "timedOut": true,
                "duration": 20011,
                "state": "failed",
                "pass": false,
                "fail": true,
                "pending": false,
                "code": "let requestData = {\"studentId\" : \"262\"};\nchai.request(server)\n    .post('/api/authTest/getMyTrainerList')\n    .send(requestData)\n    .end((err, res) => {\n      expect(res).to.have.status(200);\n      expect(res).to.be.json;\n      done();\n    });",
                "err": {
                  "message": "Error: Timeout of 20000ms exceeded. For async tests and hooks, ensure \"done()\" is called; if returning a Promise, ensure it resolves.",
                  "estack": "Error: Timeout of 20000ms exceeded. For async tests and hooks, ensure \"done()\" is called; if returning a Promise, ensure it resolves."
                },
                "isRoot": false,
                "uuid": "9df96132-72a7-4ec9-bfd5-ff2876a411b2",
                "isHook": false,
                "skipped": false
              }
            ],
            "suites": [],
            "passes": [],
            "failures": [
              "9df96132-72a7-4ec9-bfd5-ff2876a411b2"
            ],
            "pending": [],
            "skipped": [],
            "duration": 20011,
            "root": false,
            "rootEmpty": false,
            "_timeout": 20000
          }
        ],
        "passes": [],
        "failures": [],
        "pending": [],
        "skipped": [],
        "duration": 0,
        "root": false,
        "rootEmpty": false,
        "_timeout": 20000
      }
    ],
    "passes": [],
    "failures": [],
    "pending": [],
    "skipped": [],
    "duration": 0,
    "root": true,
    "rootEmpty": true,
    "_timeout": 20000
  },
  "copyrightYear": 2018
}